Housing
…
train <- mutate(group_by(train, LotShape), LotFrontage = ifelse(is.na(LotFrontage), median(LotFrontage, na.rm = TRUE), LotFrontage))
sum(is.na(train$LotFrontage))

## [1] 0

Then lets replace our Alley variables missing values

train$Alley <- replace_na(train$Alley, "No Alley")
train

## # A tibble: 1,460 x 81
## # Groups:   LotShape [4]
##       Id MSSubClass MSZoning LotFrontage LotArea Street Alley    LotShape
##    <int>      <int> <chr>          <dbl>   <int> <chr>  <chr>    <chr>   
##  1     1         60 RL                65    8450 Pave   No Alley Reg     
##  2     2         20 RL                80    9600 Pave   No Alley Reg     
##  3     3         60 RL                68   11250 Pave   No Alley IR1     
##  4     4         70 RL                60    9550 Pave   No Alley IR1     
##  5     5         60 RL                84   14260 Pave   No Alley IR1     
##  6     6         50 RL                85   14115 Pave   No Alley IR1     
##  7     7         20 RL                75   10084 Pave   No Alley Reg     
##  8     8         60 RL                74   10382 Pave   No Alley IR1     
##  9     9         50 RM                51    6120 Pave   No Alley Reg     
## 10    10        190 RL                50    7420 Pave   No Alley Reg     
## # ... with 1,450 more rows, and 73 more variables: LandContour <chr>,
## #   Utilities <chr>, LotConfig <chr>, LandSlope <chr>, Neighborhood <chr>,
## #   Condition1 <chr>, Condition2 <chr>, BldgType <chr>, HouseStyle <chr>,
## #   OverallQual <int>, OverallCond <int>, YearBuilt <int>, YearRemodAdd <int>,
## #   RoofStyle <chr>, RoofMatl <chr>, Exterior1st <chr>, Exterior2nd <chr>,
## #   MasVnrType <chr>, MasVnrArea <int>, ExterQual <chr>, ExterCond <chr>,
## #   Foundation <chr>, BsmtQual <chr>, BsmtCond <chr>, BsmtExposure <chr>, ...
…
